{"code":200,"meta":{"pagination":{"total":2968,"pages":297,"page":1,"limit":10}},"Data":[{"id":6961143,"name":"Deveshwar Abbott","email":"deveshwar_abbott@johnston.test","gender":"female","status":"active"},{"id":6961142,"name":"Bakula Kapoor","email":"kapoor_bakula@stanton.test","gender":"female","status":"inactive"},{"id":6961141,"name":"Vidhur Dutta V","email":"vidhur_dutta_v@pacocha-thiel.example","gender":"male","status":"active"},{"id":6961140,"name":"Sen. Sujata Mehra","email":"mehra_sujata_sen@schamberger.example","gender":"male","status":"active"},{"id":6961139,"name":"Rev. Shrishti Khatri","email":"shrishti_rev_khatri@spinka-osinski.example","gender":"male","status":"inactive"},{"id":6961138,"name":"Abhaya Kakkar","email":"kakkar_abhaya@graham-swift.example","gender":"male","status":"active"},{"id":6961137,"name":"Jahnu Pandey","email":"pandey_jahnu@cummings.test","gender":"male","status":"active"},{"id":6961136,"name":"Swara Joshi","email":"joshi_swara@kris-stokes.test","gender":"male","status":"active"},{"id":6961134,"name":"Sukanya Dhawan","email":"dhawan_sukanya@lakin.example","gender":"male","status":"inactive"},{"id":6961133,"name":"Akula Banerjee","email":"akula_banerjee@powlowski-hermiston.test","gender":"male","status":"inactive"}]}{"code":200,"meta":{"pagination":{"total":2968,"pages":297,"page":1,"limit":10}},"Data":[{"id":6961143,"name":"Deveshwar Abbott","email":"deveshwar_abbott@johnston.test","gender":"female","status":"active"},{"id":6961142,"name":"Bakula Kapoor","email":"kapoor_bakula@stanton.test","gender":"female","status":"inactive"},{"id":6961141,"name":"Vidhur Dutta V","email":"vidhur_dutta_v@pacocha-thiel.example","gender":"male","status":"active"},{"id":6961140,"name":"Sen. Sujata Mehra","email":"mehra_sujata_sen@schamberger.example","gender":"male","status":"active"},{"id":6961139,"name":"Rev. Shrishti Khatri","email":"shrishti_rev_khatri@spinka-osinski.example","gender":"male","status":"inactive"},{"id":6961138,"name":"Abhaya Kakkar","email":"kakkar_abhaya@graham-swift.example","gender":"male","status":"active"},{"id":6961137,"name":"Jahnu Pandey","email":"pandey_jahnu@cummings.test","gender":"male","status":"active"},{"id":6961136,"name":"Swara Joshi","email":"joshi_swara@kris-stokes.test","gender":"male","status":"active"},{"id":6961134,"name":"Sukanya Dhawan","email":"dhawan_sukanya@lakin.example","gender":"male","status":"inactive"},{"id":6961133,"name":"Akula Banerjee","email":"akula_banerjee@powlowski-hermiston.test","gender":"male","status":"inactive"}]}